# Created at 2020-10-30T09:45:05.387
Exiting self fork JVM. Received SHUTDOWN command from Maven shutdown hook.
Thread dump before exiting the process (6644@Wipro-Client):
"Forwarding clickElement on session 2d21c0e6-6fa6-483d-a8a3-bbef12503151 to remote" 
   java.lang.Thread.State: WAITING
        at java.base@14.0.1/jdk.internal.misc.Unsafe.park(Native Method)
        at java.base@14.0.1/java.util.concurrent.locks.LockSupport.park(LockSupport.java:211)
        at java.base@14.0.1/java.util.concurrent.CompletableFuture$Signaller.block(CompletableFuture.java:1860)
        at java.base@14.0.1/java.util.concurrent.ForkJoinPool.managedBlock(ForkJoinPool.java:3137)
        at java.base@14.0.1/java.util.concurrent.CompletableFuture.waitingGet(CompletableFuture.java:1887)
        at java.base@14.0.1/java.util.concurrent.CompletableFuture.get(CompletableFuture.java:2062)
        at app//org.asynchttpclient.netty.NettyResponseFuture.get(NettyResponseFuture.java:201)
        at app//org.openqa.selenium.remote.http.netty.NettyHttpHandler.makeCall(NettyHttpHandler.java:57)
        at app//org.openqa.selenium.remote.http.netty.NettyHttpHandler$$Lambda$156/0x0000000800c7d840.execute(Unknown Source)
        at app//org.openqa.selenium.remote.http.AddSeleniumUserAgent.lambda$apply$0(AddSeleniumUserAgent.java:42)
        at app//org.openqa.selenium.remote.http.AddSeleniumUserAgent$$Lambda$346/0x0000000800d70440.execute(Unknown Source)
        at app//org.openqa.selenium.remote.http.Filter.lambda$andFinally$1(Filter.java:56)
        at app//org.openqa.selenium.remote.http.Filter$$Lambda$157/0x0000000800c7d040.execute(Unknown Source)
        at app//org.openqa.selenium.remote.http.netty.NettyHttpHandler.execute(NettyHttpHandler.java:47)
        at app//org.openqa.selenium.remote.http.AddSeleniumUserAgent.lambda$apply$0(AddSeleniumUserAgent.java:42)
        at app//org.openqa.selenium.remote.http.AddSeleniumUserAgent$$Lambda$346/0x0000000800d70440.execute(Unknown Source)
        at app//org.openqa.selenium.remote.http.Filter.lambda$andFinally$1(Filter.java:56)
        at app//org.openqa.selenium.remote.http.Filter$$Lambda$157/0x0000000800c7d040.execute(Unknown Source)
        at app//org.openqa.selenium.remote.http.netty.NettyClient.execute(NettyClient.java:55)
        at app//org.openqa.selenium.remote.HttpCommandExecutor.execute(HttpCommandExecutor.java:157)
        at app//org.openqa.selenium.remote.service.DriverCommandExecutor.execute(DriverCommandExecutor.java:83)
        at app//org.openqa.selenium.remote.RemoteWebDriver.execute(RemoteWebDriver.java:582)
        at app//org.openqa.selenium.remote.RemoteWebElement.execute(RemoteWebElement.java:316)
        at app//org.openqa.selenium.remote.RemoteWebElement.click(RemoteWebElement.java:85)
        at app//ObjectRepositories.E2OpenHome.Logout(E2OpenHome.java:42)
        at app//Testcases.E2OpenPortal.E2Open(E2OpenPortal.java:36)
        at java.base@14.0.1/jdk.internal.reflect.NativeMethodAccessorImpl.invoke0(Native Method)
        at java.base@14.0.1/jdk.internal.reflect.NativeMethodAccessorImpl.invoke(NativeMethodAccessorImpl.java:62)
        at java.base@14.0.1/jdk.internal.reflect.DelegatingMethodAccessorImpl.invoke(DelegatingMethodAccessorImpl.java:43)
        at java.base@14.0.1/java.lang.reflect.Method.invoke(Method.java:564)
        at app//org.testng.internal.MethodInvocationHelper.invokeMethod(MethodInvocationHelper.java:134)
        at app//org.testng.internal.TestInvoker.invokeMethod(TestInvoker.java:597)
        at app//org.testng.internal.TestInvoker.invokeTestMethod(TestInvoker.java:173)
        at app//org.testng.internal.MethodRunner.runInSequence(MethodRunner.java:46)
        at app//org.testng.internal.TestInvoker$MethodInvocationAgent.invoke(TestInvoker.java:816)
        at app//org.testng.internal.TestInvoker.invokeTestMethods(TestInvoker.java:146)
        at app//org.testng.internal.TestMethodWorker.invokeTestMethods(TestMethodWorker.java:146)
        at app//org.testng.internal.TestMethodWorker.run(TestMethodWorker.java:128)
        at app//org.testng.TestRunner$$Lambda$386/0x0000000800dc9840.accept(Unknown Source)
        at java.base@14.0.1/java.util.ArrayList.forEach(ArrayList.java:1510)
        at app//org.testng.TestRunner.privateRun(TestRunner.java:766)
        at app//org.testng.TestRunner.run(TestRunner.java:587)
        at app//org.testng.SuiteRunner.runTest(SuiteRunner.java:384)
        at app//org.testng.SuiteRunner.runSequentially(SuiteRunner.java:378)
        at app//org.testng.SuiteRunner.privateRun(SuiteRunner.java:337)
        at app//org.testng.SuiteRunner.run(SuiteRunner.java:286)
        at app//org.testng.SuiteRunnerWorker.runSuite(SuiteRunnerWorker.java:53)
        at app//org.testng.SuiteRunnerWorker.run(SuiteRunnerWorker.java:96)
        at app//org.testng.TestNG.runSuitesSequentially(TestNG.java:1187)
        at app//org.testng.TestNG.runSuitesLocally(TestNG.java:1109)
        at app//org.testng.TestNG.runSuites(TestNG.java:1039)
        at app//org.testng.TestNG.run(TestNG.java:1007)
        at app//org.apache.maven.surefire.testng.TestNGExecutor.run(TestNGExecutor.java:283)
        at app//org.apache.maven.surefire.testng.TestNGXmlTestSuite.execute(TestNGXmlTestSuite.java:75)
        at app//org.apache.maven.surefire.testng.TestNGProvider.invoke(TestNGProvider.java:120)
        at app//org.apache.maven.surefire.booter.ForkedBooter.runSuitesInProcess(ForkedBooter.java:377)
        at app//org.apache.maven.surefire.booter.ForkedBooter.execute(ForkedBooter.java:138)
        at app//org.apache.maven.surefire.booter.ForkedBooter.run(ForkedBooter.java:465)
        at app//org.apache.maven.surefire.booter.ForkedBooter.main(ForkedBooter.java:451)

"Reference Handler" 
   java.lang.Thread.State: RUNNABLE
        at java.base@14.0.1/java.lang.ref.Reference.waitForReferencePendingList(Native Method)
        at java.base@14.0.1/java.lang.ref.Reference.processPendingReferences(Reference.java:241)
        at java.base@14.0.1/java.lang.ref.Reference$ReferenceHandler.run(Reference.java:213)

"Finalizer" 
   java.lang.Thread.State: WAITING
        at java.base@14.0.1/java.lang.Object.wait(Native Method)
        at java.base@14.0.1/java.lang.ref.ReferenceQueue.remove(ReferenceQueue.java:155)
        at java.base@14.0.1/java.lang.ref.ReferenceQueue.remove(ReferenceQueue.java:176)
        at java.base@14.0.1/java.lang.ref.Finalizer$FinalizerThread.run(Finalizer.java:170)

"Signal Dispatcher" 
   java.lang.Thread.State: RUNNABLE

"Attach Listener" 
   java.lang.Thread.State: RUNNABLE

"Notification Thread" 
   java.lang.Thread.State: RUNNABLE

"Common-Cleaner" 
   java.lang.Thread.State: TIMED_WAITING
        at java.base@14.0.1/java.lang.Object.wait(Native Method)
        at java.base@14.0.1/java.lang.ref.ReferenceQueue.remove(ReferenceQueue.java:155)
        at java.base@14.0.1/jdk.internal.ref.CleanerImpl.run(CleanerImpl.java:148)
        at java.base@14.0.1/java.lang.Thread.run(Thread.java:832)
        at java.base@14.0.1/jdk.internal.misc.InnocuousThread.run(InnocuousThread.java:134)

"surefire-forkedjvm-command-thread" 
   java.lang.Thread.State: RUNNABLE
        at java.management@14.0.1/sun.management.ThreadImpl.getThreadInfo1(Native Method)
        at java.management@14.0.1/sun.management.ThreadImpl.getThreadInfo(ThreadImpl.java:197)
        at app//org.apache.maven.surefire.booter.ForkedBooter.generateThreadDump(ForkedBooter.java:546)
        at app//org.apache.maven.surefire.booter.ForkedBooter.access$400(ForkedBooter.java:68)
        at app//org.apache.maven.surefire.booter.ForkedBooter$4.update(ForkedBooter.java:295)
        at app//org.apache.maven.surefire.booter.CommandReader$CommandRunnable.callListeners(CommandReader.java:467)
        at app//org.apache.maven.surefire.booter.CommandReader$CommandRunnable.exitByConfiguration(CommandReader.java:479)
        at app//org.apache.maven.surefire.booter.CommandReader$CommandRunnable.run(CommandReader.java:432)
        at java.base@14.0.1/java.lang.Thread.run(Thread.java:832)

"ForkJoinPool.commonPool-worker-3" 
   java.lang.Thread.State: WAITING
        at java.base@14.0.1/jdk.internal.misc.Unsafe.park(Native Method)
        at java.base@14.0.1/java.util.concurrent.locks.LockSupport.park(LockSupport.java:211)
        at java.base@14.0.1/java.util.concurrent.ForkJoinPool.runWorker(ForkJoinPool.java:1633)
        at java.base@14.0.1/java.util.concurrent.ForkJoinWorkerThread.run(ForkJoinWorkerThread.java:177)

"AsyncHttpClient-timer-1-1" 
   java.lang.Thread.State: TIMED_WAITING
        at java.base@14.0.1/java.lang.Thread.sleep(Native Method)
        at app//io.netty.util.HashedWheelTimer$Worker.waitForNextTick(HashedWheelTimer.java:569)
        at app//io.netty.util.HashedWheelTimer$Worker.run(HashedWheelTimer.java:465)
        at app//io.netty.util.concurrent.FastThreadLocalRunnable.run(FastThreadLocalRunnable.java:30)
        at java.base@14.0.1/java.lang.Thread.run(Thread.java:832)

"Exec Default Executor" 
   java.lang.Thread.State: RUNNABLE
        at java.base@14.0.1/java.lang.ProcessImpl.waitForInterruptibly(Native Method)
        at java.base@14.0.1/java.lang.ProcessImpl.waitFor(ProcessImpl.java:547)
        at app//org.apache.commons.exec.DefaultExecutor.executeInternal(DefaultExecutor.java:364)
        at app//org.apache.commons.exec.DefaultExecutor.access$200(DefaultExecutor.java:48)
        at app//org.apache.commons.exec.DefaultExecutor$1.run(DefaultExecutor.java:200)
        at java.base@14.0.1/java.lang.Thread.run(Thread.java:832)

"ForkJoinPool.commonPool-worker-5" 
   java.lang.Thread.State: WAITING
        at java.base@14.0.1/jdk.internal.misc.Unsafe.park(Native Method)
        at java.base@14.0.1/java.util.concurrent.locks.LockSupport.park(LockSupport.java:211)
        at java.base@14.0.1/java.util.concurrent.ForkJoinPool.runWorker(ForkJoinPool.java:1633)
        at java.base@14.0.1/java.util.concurrent.ForkJoinWorkerThread.run(ForkJoinWorkerThread.java:177)

"ForkJoinPool.commonPool-worker-7" 
   java.lang.Thread.State: TIMED_WAITING
        at java.base@14.0.1/java.lang.Thread.sleep(Native Method)
        at app//org.openqa.selenium.os.OsProcess.waitFor(OsProcess.java:168)
        at app//org.openqa.selenium.os.CommandLine.waitFor(CommandLine.java:127)
        at app//org.openqa.selenium.remote.service.DriverService.lambda$start$1(DriverService.java:198)
        at app//org.openqa.selenium.remote.service.DriverService$$Lambda$163/0x0000000800c7bc40.get(Unknown Source)
        at java.base@14.0.1/java.util.concurrent.CompletableFuture$AsyncSupply.run(CompletableFuture.java:1764)
        at java.base@14.0.1/java.util.concurrent.CompletableFuture$AsyncSupply.exec(CompletableFuture.java:1756)
        at java.base@14.0.1/java.util.concurrent.ForkJoinTask.doExec(ForkJoinTask.java:290)
        at java.base@14.0.1/java.util.concurrent.ForkJoinPool$WorkQueue.topLevelExec(ForkJoinPool.java:1016)
        at java.base@14.0.1/java.util.concurrent.ForkJoinPool.scan(ForkJoinPool.java:1665)
        at java.base@14.0.1/java.util.concurrent.ForkJoinPool.runWorker(ForkJoinPool.java:1598)
        at java.base@14.0.1/java.util.concurrent.ForkJoinWorkerThread.run(ForkJoinWorkerThread.java:177)

"Exec Stream Pumper" 
   java.lang.Thread.State: RUNNABLE
        at java.base@14.0.1/java.io.FileInputStream.readBytes(Native Method)
        at java.base@14.0.1/java.io.FileInputStream.read(FileInputStream.java:272)
        at java.base@14.0.1/java.io.BufferedInputStream.fill(BufferedInputStream.java:244)
        at java.base@14.0.1/java.io.BufferedInputStream.read1(BufferedInputStream.java:284)
        at java.base@14.0.1/java.io.BufferedInputStream.read(BufferedInputStream.java:343)
        at java.base@14.0.1/java.io.FilterInputStream.read(FilterInputStream.java:106)
        at app//org.apache.commons.exec.StreamPumper.run(StreamPumper.java:107)
        at java.base@14.0.1/java.lang.Thread.run(Thread.java:832)

"Exec Stream Pumper" 
   java.lang.Thread.State: RUNNABLE
        at java.base@14.0.1/java.io.FileInputStream.readBytes(Native Method)
        at java.base@14.0.1/java.io.FileInputStream.read(FileInputStream.java:250)
        at app//org.apache.commons.exec.StreamPumper.run(StreamPumper.java:107)
        at java.base@14.0.1/java.lang.Thread.run(Thread.java:832)

"AsyncHttpClient-3-1" 
   java.lang.Thread.State: RUNNABLE
        at java.base@14.0.1/sun.nio.ch.WindowsSelectorImpl$SubSelector.poll0(Native Method)
        at java.base@14.0.1/sun.nio.ch.WindowsSelectorImpl$SubSelector.poll(WindowsSelectorImpl.java:357)
        at java.base@14.0.1/sun.nio.ch.WindowsSelectorImpl.doSelect(WindowsSelectorImpl.java:182)
        at java.base@14.0.1/sun.nio.ch.SelectorImpl.lockAndDoSelect(SelectorImpl.java:129)
        at java.base@14.0.1/sun.nio.ch.SelectorImpl.select(SelectorImpl.java:146)
        at app//io.netty.channel.nio.SelectedSelectionKeySetSelector.select(SelectedSelectionKeySetSelector.java:68)
        at app//io.netty.channel.nio.NioEventLoop.select(NioEventLoop.java:803)
        at app//io.netty.channel.nio.NioEventLoop.run(NioEventLoop.java:457)
        at app//io.netty.util.concurrent.SingleThreadEventExecutor$4.run(SingleThreadEventExecutor.java:989)
        at app//io.netty.util.internal.ThreadExecutorMap$2.run(ThreadExecutorMap.java:74)
        at app//io.netty.util.concurrent.FastThreadLocalRunnable.run(FastThreadLocalRunnable.java:30)
        at java.base@14.0.1/java.lang.Thread.run(Thread.java:832)



